<?xml version="1.0" encoding="UTF-8" standalone="no"?>
<!--Created by yFiles for HTML 2.1.0.6-->
<graphml xsi:schemaLocation="http://graphml.graphdrawing.org/xmlns http://www.yworks.com/xml/schema/graphml.html/2.0/ygraphml.xsd " xmlns="http://graphml.graphdrawing.org/xmlns" xmlns:demostyle="http://www.yworks.com/yFilesHTML/demos/FlatDemoStyle/1.0" xmlns:bpmn="http://www.yworks.com/xml/yfiles-for-html/bpmn/2.0" xmlns:demotablestyle="http://www.yworks.com/yFilesHTML/demos/FlatDemoTableStyle/1.0" xmlns:uml="http://www.yworks.com/yFilesHTML/demos/UMLDemoStyle/1.0" xmlns:compat="http://www.yworks.com/xml/yfiles-compat-arrows/1.0" xmlns:GraphvizNodeStyle="http://www.yworks.com/yFilesHTML/graphviz-node-style/1.0" xmlns:VuejsNodeStyle="http://www.yworks.com/demos/yfiles-vuejs-node-style/1.0" xmlns:y="http://www.yworks.com/xml/yfiles-common/3.0" xmlns:x="http://www.yworks.com/xml/yfiles-common/markup/3.0" xmlns:yjs="http://www.yworks.com/xml/yfiles-for-html/2.0/xaml" xmlns:xsi="http://www.w3.org/2001/XMLSchema-instance">
	<key id="d0" for="node" attr.type="boolean" attr.name="Expanded" y:attr.uri="http://www.yworks.com/xml/yfiles-common/2.0/folding/Expanded">
		<default>true</default>
	</key>
	<key id="d1" for="node" attr.type="string" attr.name="url"/>
	<key id="d2" for="node" attr.type="string" attr.name="description"/>
	<key id="d3" for="node" attr.name="NodeLabels" y:attr.uri="http://www.yworks.com/xml/yfiles-common/2.0/NodeLabels"/>
	<key id="d4" for="node" attr.name="NodeGeometry" y:attr.uri="http://www.yworks.com/xml/yfiles-common/2.0/NodeGeometry"/>
	<key id="d5" for="all" attr.name="UserTags" y:attr.uri="http://www.yworks.com/xml/yfiles-common/2.0/UserTags"/>
	<key id="d6" for="node" attr.name="NodeStyle" y:attr.uri="http://www.yworks.com/xml/yfiles-common/2.0/NodeStyle"/>
	<key id="d7" for="node" attr.name="NodeViewState" y:attr.uri="http://www.yworks.com/xml/yfiles-common/2.0/folding/1.1/NodeViewState"/>
	<key id="d8" for="edge" attr.type="string" attr.name="url"/>
	<key id="d9" for="edge" attr.type="string" attr.name="description"/>
	<key id="d10" for="edge" attr.name="EdgeLabels" y:attr.uri="http://www.yworks.com/xml/yfiles-common/2.0/EdgeLabels"/>
	<key id="d11" for="edge" attr.name="EdgeGeometry" y:attr.uri="http://www.yworks.com/xml/yfiles-common/2.0/EdgeGeometry"/>
	<key id="d12" for="edge" attr.name="EdgeStyle" y:attr.uri="http://www.yworks.com/xml/yfiles-common/2.0/EdgeStyle"/>
	<key id="d13" for="edge" attr.name="EdgeViewState" y:attr.uri="http://www.yworks.com/xml/yfiles-common/2.0/folding/1.1/EdgeViewState"/>
	<key id="d14" for="port" attr.name="PortLabels" y:attr.uri="http://www.yworks.com/xml/yfiles-common/2.0/PortLabels"/>
	<key id="d15" for="port" attr.name="PortLocationParameter" y:attr.uri="http://www.yworks.com/xml/yfiles-common/2.0/PortLocationParameter">
		<default>
			<x:Static Member="y:FreeNodePortLocationModel.NodeCenterAnchored"/>
		</default>
	</key>
	<key id="d16" for="port" attr.name="PortStyle" y:attr.uri="http://www.yworks.com/xml/yfiles-common/2.0/PortStyle">
		<default>
			<x:Static Member="y:VoidPortStyle.Instance"/>
		</default>
	</key>
	<key id="d17" for="port" attr.name="PortViewState" y:attr.uri="http://www.yworks.com/xml/yfiles-common/2.0/folding/1.1/PortViewState"/>
	<key id="d18" attr.name="SharedData" y:attr.uri="http://www.yworks.com/xml/yfiles-common/2.0/SharedData"/>
	<data key="d18">
		<y:SharedData>
			<yjs:DefaultLabelStyle x:Key="1" font="{y:GraphMLReference 3}" textFill="BLACK"/>
			<y:RatioAnchoredLabelModelParameter x:Key="2" LayoutRatio="0.5,1" LabelRatio="0.5,0">
				<y:RatioAnchoredLabelModelParameter.Model>
					<y:FreeNodeLabelModel/>
				</y:RatioAnchoredLabelModelParameter.Model>
			</y:RatioAnchoredLabelModelParameter>
			<yjs:Font x:Key="3" fontSize="12"/>
			<yjs:SolidColorFill x:Key="4" color="DarkOrange"/>
			<yjs:Color x:Key="5" value="#FF3200FF"/>
			<yjs:DefaultLabelStyle x:Key="6" textFill="BLACK">
				<yjs:DefaultLabelStyle.font>
					<yjs:Font fontSize="12"/>
				</yjs:DefaultLabelStyle.font>
			</yjs:DefaultLabelStyle>
			<y:RatioAnchoredLabelModelParameter x:Key="7" LayoutRatio="0.5,1" LayoutOffset="0,10" LabelRatio="0.5,0"/>
			<yjs:Stroke x:Key="8" fill="{y:GraphMLReference 9}"/>
			<yjs:SolidColorFill x:Key="9" color="#FF336699"/>
			<yjs:Arrow x:Key="10" type="CIRCLE" scale="0.75" stroke="{y:GraphMLReference 8}" fill="{y:GraphMLReference 9}" cropLength="1"/>
			<yjs:PolylineEdgeStyle x:Key="11" stroke="{y:GraphMLReference 8}">
				<yjs:PolylineEdgeStyle.targetArrow>
					<yjs:Arrow type="TRIANGLE" scale="0.75" stroke="{y:GraphMLReference 8}" fill="{y:GraphMLReference 9}" cropLength="1"/>
				</yjs:PolylineEdgeStyle.targetArrow>
			</yjs:PolylineEdgeStyle>
			<yjs:Arrow x:Key="12" type="NONE" scale="0.75" stroke="{y:GraphMLReference 8}" fill="{y:GraphMLReference 9}"/>
			<yjs:SolidColorFill x:Key="13" color="#FF336699"/>
			<yjs:Stroke x:Key="14" fill="{y:GraphMLReference 13}" lineCap="SQUARE" dashStyle="{y:GraphMLReference 15}" thickness="2"/>
			<yjs:DashStyle x:Key="15" dashes="0 2" offset="0"/>
			<yjs:Arrow x:Key="16" type="NONE" scale="2" stroke="#FF336699" fill="{y:GraphMLReference 13}"/>
			<yjs:Stroke x:Key="17" fill="{y:GraphMLReference 13}" lineCap="SQUARE" dashStyle="{y:GraphMLReference 15}" thickness="2"/>
			<yjs:Stroke x:Key="18" fill="{y:GraphMLReference 13}" lineCap="SQUARE" dashStyle="{y:GraphMLReference 15}" thickness="2"/>
			<yjs:Stroke x:Key="19" fill="{y:GraphMLReference 13}" lineCap="SQUARE" dashStyle="{y:GraphMLReference 15}" thickness="2"/>
			<yjs:Stroke x:Key="20" fill="{y:GraphMLReference 13}" lineCap="SQUARE" dashStyle="{y:GraphMLReference 15}" thickness="2"/>
			<yjs:Stroke x:Key="21" fill="{y:GraphMLReference 13}" lineCap="SQUARE" dashStyle="{y:GraphMLReference 15}" thickness="2"/>
			<yjs:Stroke x:Key="22" fill="{y:GraphMLReference 13}" lineCap="SQUARE" dashStyle="{y:GraphMLReference 15}" thickness="2"/>
			<yjs:Stroke x:Key="23" fill="{y:GraphMLReference 13}" lineCap="SQUARE" dashStyle="{y:GraphMLReference 15}" thickness="2"/>
			<yjs:Stroke x:Key="24" fill="{y:GraphMLReference 13}" lineCap="SQUARE" dashStyle="{y:GraphMLReference 15}" thickness="2"/>
			<yjs:Stroke x:Key="25" fill="{y:GraphMLReference 13}" lineCap="SQUARE" dashStyle="{y:GraphMLReference 15}" thickness="2"/>
			<yjs:Stroke x:Key="26" fill="{y:GraphMLReference 13}" lineCap="SQUARE" dashStyle="{y:GraphMLReference 15}" thickness="2"/>
			<y:FreeEdgeLabelModel x:Key="27"/>
			<yjs:Stroke x:Key="28" fill="{y:GraphMLReference 13}" lineCap="SQUARE" dashStyle="{y:GraphMLReference 15}" thickness="2"/>
			<yjs:Stroke x:Key="29" fill="{y:GraphMLReference 13}" lineCap="SQUARE" dashStyle="{y:GraphMLReference 15}" thickness="2"/>
			<yjs:Stroke x:Key="30" fill="{y:GraphMLReference 13}" lineCap="SQUARE" dashStyle="{y:GraphMLReference 15}" thickness="2"/>
			<yjs:Stroke x:Key="31" fill="{y:GraphMLReference 13}" lineCap="SQUARE" dashStyle="{y:GraphMLReference 15}" thickness="2"/>
			<yjs:Stroke x:Key="32" fill="{y:GraphMLReference 13}" lineCap="SQUARE" dashStyle="{y:GraphMLReference 15}" thickness="2"/>
			<yjs:Stroke x:Key="33" fill="{y:GraphMLReference 13}" lineCap="SQUARE" dashStyle="{y:GraphMLReference 15}" thickness="2"/>
		</y:SharedData>
	</data>
	<graph id="G" edgedefault="directed">
		<data key="d5">
			<y:Json>{"version":"2.0.0","layout":"layout-organic"}</y:Json>
		</data>
		<node id="n0">
			<data key="d3">
				<x:List>
					<y:Label Style="{y:GraphMLReference 1}">
						<y:Label.Text><![CDATA[Jack Baum]]></y:Label.Text>
						<y:Label.LayoutParameter>
							<y:RatioAnchoredLabelModelParameter LayoutRatio="0.5,1" LabelRatio="0.5,0">
								<y:RatioAnchoredLabelModelParameter.Model>
									<y:FreeNodeLabelModel/>
								</y:RatioAnchoredLabelModelParameter.Model>
							</y:RatioAnchoredLabelModelParameter>
						</y:Label.LayoutParameter>
					</y:Label>
				</x:List>
			</data>
			<data key="d4">
				<y:RectD X="169" Y="569" Width="40" Height="40"/>
			</data>
			<data key="d6">
				<demostyle:AssetNodeStyle assetName="usericon_male5.svg"/>
			</data>
			<port name="p0"/>
			<port name="p1"/>
		</node>
		<node id="n1">
			<data key="d3">
				<x:List>
					<y:Label Style="{y:GraphMLReference 1}">
						<y:Label.Text><![CDATA[Peter Tester]]></y:Label.Text>
						<y:Label.LayoutParameter>
							<y:RatioAnchoredLabelModelParameter LayoutRatio="0.5,1" LabelRatio="0.5,0">
								<y:RatioAnchoredLabelModelParameter.Model>
									<y:FreeNodeLabelModel/>
								</y:RatioAnchoredLabelModelParameter.Model>
							</y:RatioAnchoredLabelModelParameter>
						</y:Label.LayoutParameter>
					</y:Label>
				</x:List>
			</data>
			<data key="d4">
				<y:RectD X="32" Y="559" Width="40" Height="40"/>
			</data>
			<data key="d6">
				<demostyle:AssetNodeStyle assetName="usericon_male5.svg"/>
			</data>
			<port name="p0"/>
			<port name="p1"/>
		</node>
		<node id="n2">
			<data key="d3">
				<x:List>
					<y:Label Style="{y:GraphMLReference 1}">
						<y:Label.Text><![CDATA[Erik Ostermann]]></y:Label.Text>
						<y:Label.LayoutParameter>
							<y:RatioAnchoredLabelModelParameter LayoutRatio="0.5,1" LabelRatio="0.5,0">
								<y:RatioAnchoredLabelModelParameter.Model>
									<y:FreeNodeLabelModel/>
								</y:RatioAnchoredLabelModelParameter.Model>
							</y:RatioAnchoredLabelModelParameter>
						</y:Label.LayoutParameter>
					</y:Label>
				</x:List>
			</data>
			<data key="d4">
				<y:RectD X="175" Y="71" Width="40" Height="40"/>
			</data>
			<data key="d6">
				<demostyle:AssetNodeStyle assetName="usericon_male5.svg"/>
			</data>
			<port name="p0"/>
			<port name="p1"/>
		</node>
		<node id="n3">
			<data key="d3">
				<x:List>
					<y:Label Style="{y:GraphMLReference 1}">
						<y:Label.Text><![CDATA[Helmut Dunkel]]></y:Label.Text>
						<y:Label.LayoutParameter>
							<y:RatioAnchoredLabelModelParameter LayoutRatio="0.5,1" LabelRatio="0.5,0">
								<y:RatioAnchoredLabelModelParameter.Model>
									<y:FreeNodeLabelModel/>
								</y:RatioAnchoredLabelModelParameter.Model>
							</y:RatioAnchoredLabelModelParameter>
						</y:Label.LayoutParameter>
					</y:Label>
				</x:List>
			</data>
			<data key="d4">
				<y:RectD X="666" Y="0" Width="40" Height="40"/>
			</data>
			<data key="d6">
				<demostyle:AssetNodeStyle assetName="usericon_male5.svg"/>
			</data>
			<port name="p0"/>
		</node>
		<node id="n4">
			<data key="d3">
				<x:List>
					<y:Label Style="{y:GraphMLReference 1}">
						<y:Label.Text><![CDATA[Kurt Kinderzeug]]></y:Label.Text>
						<y:Label.LayoutParameter>
							<y:RatioAnchoredLabelModelParameter LayoutRatio="0.5,1" LabelRatio="0.5,0">
								<y:RatioAnchoredLabelModelParameter.Model>
									<y:FreeNodeLabelModel/>
								</y:RatioAnchoredLabelModelParameter.Model>
							</y:RatioAnchoredLabelModelParameter>
						</y:Label.LayoutParameter>
					</y:Label>
				</x:List>
			</data>
			<data key="d4">
				<y:RectD X="281" Y="781" Width="40" Height="40"/>
			</data>
			<data key="d6">
				<demostyle:AssetNodeStyle assetName="usericon_male5.svg"/>
			</data>
			<port name="p0"/>
			<port name="p1"/>
		</node>
		<node id="n5">
			<data key="d3">
				<x:List>
					<y:Label Style="{y:GraphMLReference 1}">
						<y:Label.Text><![CDATA[Heinrich Rotblock]]></y:Label.Text>
						<y:Label.LayoutParameter>
							<y:RatioAnchoredLabelModelParameter LayoutRatio="0.5,1" LabelRatio="0.5,0">
								<y:RatioAnchoredLabelModelParameter.Model>
									<y:FreeNodeLabelModel/>
								</y:RatioAnchoredLabelModelParameter.Model>
							</y:RatioAnchoredLabelModelParameter>
						</y:Label.LayoutParameter>
					</y:Label>
				</x:List>
			</data>
			<data key="d4">
				<y:RectD X="348" Y="559" Width="40" Height="40"/>
			</data>
			<data key="d6">
				<demostyle:AssetNodeStyle assetName="usericon_male5.svg"/>
			</data>
			<port name="p0"/>
			<port name="p1"/>
		</node>
		<node id="n6">
			<data key="d3">
				<x:List>
					<y:Label Style="{y:GraphMLReference 1}">
						<y:Label.Text><![CDATA[Johann Klaubauf]]></y:Label.Text>
						<y:Label.LayoutParameter>
							<y:RatioAnchoredLabelModelParameter LayoutRatio="0.5,1" LabelRatio="0.5,0">
								<y:RatioAnchoredLabelModelParameter.Model>
									<y:FreeNodeLabelModel/>
								</y:RatioAnchoredLabelModelParameter.Model>
							</y:RatioAnchoredLabelModelParameter>
						</y:Label.LayoutParameter>
					</y:Label>
				</x:List>
			</data>
			<data key="d4">
				<y:RectD X="763" Y="0" Width="40" Height="40"/>
			</data>
			<data key="d6">
				<demostyle:AssetNodeStyle assetName="usericon_male5.svg"/>
			</data>
			<port name="p0"/>
		</node>
		<node id="n7">
			<data key="d3">
				<x:List>
					<y:Label Style="{y:GraphMLReference 1}">
						<y:Label.Text><![CDATA[Michael Hebauf]]></y:Label.Text>
						<y:Label.LayoutParameter>
							<y:RatioAnchoredLabelModelParameter LayoutRatio="0.5,1" LabelRatio="0.5,0">
								<y:RatioAnchoredLabelModelParameter.Model>
									<y:FreeNodeLabelModel/>
								</y:RatioAnchoredLabelModelParameter.Model>
							</y:RatioAnchoredLabelModelParameter>
						</y:Label.LayoutParameter>
					</y:Label>
				</x:List>
			</data>
			<data key="d4">
				<y:RectD X="698" Y="687" Width="40" Height="40"/>
			</data>
			<data key="d6">
				<demostyle:AssetNodeStyle assetName="usericon_male5.svg"/>
			</data>
			<port name="p0"/>
			<port name="p1"/>
		</node>
		<node id="n8">
			<data key="d3">
				<x:List>
					<y:Label Style="{y:GraphMLReference 1}">
						<y:Label.Text><![CDATA[Jürgen Rotblock]]></y:Label.Text>
						<y:Label.LayoutParameter>
							<y:RatioAnchoredLabelModelParameter LayoutRatio="0.5,1" LabelRatio="0.5,0">
								<y:RatioAnchoredLabelModelParameter.Model>
									<y:FreeNodeLabelModel/>
								</y:RatioAnchoredLabelModelParameter.Model>
							</y:RatioAnchoredLabelModelParameter>
						</y:Label.LayoutParameter>
					</y:Label>
				</x:List>
			</data>
			<data key="d4">
				<y:RectD X="255" Y="661" Width="40" Height="40"/>
			</data>
			<data key="d6">
				<demostyle:AssetNodeStyle assetName="usericon_male5.svg"/>
			</data>
			<port name="p0"/>
			<port name="p1"/>
		</node>
		<node id="n9">
			<data key="d3">
				<x:List>
					<y:Label Style="{y:GraphMLReference 1}">
						<y:Label.Text><![CDATA[Maximilian Blauschwarz]]></y:Label.Text>
						<y:Label.LayoutParameter>
							<y:RatioAnchoredLabelModelParameter LayoutRatio="0.5,1" LabelRatio="0.5,0">
								<y:RatioAnchoredLabelModelParameter.Model>
									<y:FreeNodeLabelModel/>
								</y:RatioAnchoredLabelModelParameter.Model>
							</y:RatioAnchoredLabelModelParameter>
						</y:Label.LayoutParameter>
					</y:Label>
				</x:List>
			</data>
			<data key="d4">
				<y:RectD X="476" Y="582" Width="40" Height="40"/>
			</data>
			<data key="d6">
				<demostyle:AssetNodeStyle assetName="usericon_male5.svg"/>
			</data>
			<port name="p0"/>
			<port name="p1"/>
		</node>
		<node id="n10">
			<data key="d3">
				<x:List>
					<y:Label Style="{y:GraphMLReference 1}">
						<y:Label.Text><![CDATA[Sebastian Block]]></y:Label.Text>
						<y:Label.LayoutParameter>
							<y:RatioAnchoredLabelModelParameter LayoutRatio="0.5,1" LabelRatio="0.5,0">
								<y:RatioAnchoredLabelModelParameter.Model>
									<y:FreeNodeLabelModel/>
								</y:RatioAnchoredLabelModelParameter.Model>
							</y:RatioAnchoredLabelModelParameter>
						</y:Label.LayoutParameter>
					</y:Label>
				</x:List>
			</data>
			<data key="d4">
				<y:RectD X="412" Y="0" Width="40" Height="40"/>
			</data>
			<data key="d6">
				<demostyle:AssetNodeStyle assetName="usericon_male5.svg"/>
			</data>
			<port name="p0"/>
			<port name="p1"/>
			<port name="p2"/>
		</node>
		<node id="n11">
			<data key="d3">
				<x:List>
					<y:Label Style="{y:GraphMLReference 1}">
						<y:Label.Text><![CDATA[Moritz Block]]></y:Label.Text>
						<y:Label.LayoutParameter>
							<y:RatioAnchoredLabelModelParameter LayoutRatio="0.5,1" LabelRatio="0.5,0">
								<y:RatioAnchoredLabelModelParameter.Model>
									<y:FreeNodeLabelModel/>
								</y:RatioAnchoredLabelModelParameter.Model>
							</y:RatioAnchoredLabelModelParameter>
						</y:Label.LayoutParameter>
					</y:Label>
				</x:List>
			</data>
			<data key="d4">
				<y:RectD X="563" Y="184" Width="40" Height="40"/>
			</data>
			<data key="d6">
				<demostyle:AssetNodeStyle assetName="usericon_male5.svg"/>
			</data>
			<port name="p0"/>
			<port name="p1"/>
			<port name="p2"/>
		</node>
		<node id="n12">
			<data key="d3">
				<x:List>
					<y:Label Style="{y:GraphMLReference 1}">
						<y:Label.Text><![CDATA[Lorenz Block]]></y:Label.Text>
						<y:Label.LayoutParameter>
							<y:RatioAnchoredLabelModelParameter LayoutRatio="0.5,1" LabelRatio="0.5,0">
								<y:RatioAnchoredLabelModelParameter.Model>
									<y:FreeNodeLabelModel/>
								</y:RatioAnchoredLabelModelParameter.Model>
							</y:RatioAnchoredLabelModelParameter>
						</y:Label.LayoutParameter>
					</y:Label>
				</x:List>
			</data>
			<data key="d4">
				<y:RectD X="569" Y="39" Width="40" Height="40"/>
			</data>
			<data key="d6">
				<demostyle:AssetNodeStyle assetName="usericon_male5.svg"/>
			</data>
			<port name="p0"/>
			<port name="p1"/>
			<port name="p2"/>
			<port name="p3"/>
		</node>
		<node id="n13">
			<data key="d3">
				<x:List>
					<y:Label Style="{y:GraphMLReference 1}">
						<y:Label.Text><![CDATA[Daniel von Serviz]]></y:Label.Text>
						<y:Label.LayoutParameter>
							<y:RatioAnchoredLabelModelParameter LayoutRatio="0.5,1" LabelRatio="0.5,0">
								<y:RatioAnchoredLabelModelParameter.Model>
									<y:FreeNodeLabelModel/>
								</y:RatioAnchoredLabelModelParameter.Model>
							</y:RatioAnchoredLabelModelParameter>
						</y:Label.LayoutParameter>
					</y:Label>
				</x:List>
			</data>
			<data key="d4">
				<y:RectD X="426" Y="781" Width="40" Height="40"/>
			</data>
			<data key="d6">
				<demostyle:AssetNodeStyle assetName="usericon_male5.svg"/>
			</data>
		</node>
		<node id="n14">
			<data key="d3">
				<x:List>
					<y:Label Style="{y:GraphMLReference 1}">
						<y:Label.Text><![CDATA[Gabriel Rosenherz]]></y:Label.Text>
						<y:Label.LayoutParameter>
							<y:RatioAnchoredLabelModelParameter LayoutRatio="0.5,1" LabelRatio="0.5,0">
								<y:RatioAnchoredLabelModelParameter.Model>
									<y:FreeNodeLabelModel/>
								</y:RatioAnchoredLabelModelParameter.Model>
							</y:RatioAnchoredLabelModelParameter>
						</y:Label.LayoutParameter>
					</y:Label>
				</x:List>
			</data>
			<data key="d4">
				<y:RectD X="402" Y="320" Width="40" Height="40"/>
			</data>
			<data key="d6">
				<demostyle:AssetNodeStyle assetName="usericon_male5.svg"/>
			</data>
			<port name="p0"/>
		</node>
		<node id="n15">
			<data key="d3">
				<x:List>
					<y:Label Style="{y:GraphMLReference 1}">
						<y:Label.Text><![CDATA[Oskar Sonnenbrand]]></y:Label.Text>
						<y:Label.LayoutParameter>
							<y:RatioAnchoredLabelModelParameter LayoutRatio="0.5,1" LabelRatio="0.5,0">
								<y:RatioAnchoredLabelModelParameter.Model>
									<y:FreeNodeLabelModel/>
								</y:RatioAnchoredLabelModelParameter.Model>
							</y:RatioAnchoredLabelModelParameter>
						</y:Label.LayoutParameter>
					</y:Label>
				</x:List>
			</data>
			<data key="d4">
				<y:RectD X="860" Y="0" Width="40" Height="40"/>
			</data>
			<data key="d6">
				<demostyle:AssetNodeStyle assetName="usericon_male5.svg"/>
			</data>
			<port name="p0"/>
		</node>
		<node id="n16">
			<data key="d3">
				<x:List>
					<y:Label Style="{y:GraphMLReference 1}">
						<y:Label.Text><![CDATA[Theo Aua]]></y:Label.Text>
						<y:Label.LayoutParameter>
							<y:RatioAnchoredLabelModelParameter LayoutRatio="0.5,1" LabelRatio="0.5,0">
								<y:RatioAnchoredLabelModelParameter.Model>
									<y:FreeNodeLabelModel/>
								</y:RatioAnchoredLabelModelParameter.Model>
							</y:RatioAnchoredLabelModelParameter>
						</y:Label.LayoutParameter>
					</y:Label>
				</x:List>
			</data>
			<data key="d4">
				<y:RectD X="0" Y="909" Width="40" Height="40"/>
			</data>
			<data key="d6">
				<demostyle:AssetNodeStyle assetName="usericon_male5.svg"/>
			</data>
			<port name="p0"/>
			<port name="p1"/>
		</node>
		<node id="n17">
			<data key="d3">
				<x:List>
					<y:Label Style="{y:GraphMLReference 1}">
						<y:Label.Text><![CDATA[Kilian Kapperlmacher]]></y:Label.Text>
						<y:Label.LayoutParameter>
							<y:RatioAnchoredLabelModelParameter LayoutRatio="0.5,1" LabelRatio="0.5,0">
								<y:RatioAnchoredLabelModelParameter.Model>
									<y:FreeNodeLabelModel/>
								</y:RatioAnchoredLabelModelParameter.Model>
							</y:RatioAnchoredLabelModelParameter>
						</y:Label.LayoutParameter>
					</y:Label>
				</x:List>
			</data>
			<data key="d4">
				<y:RectD X="11" Y="320" Width="40" Height="40"/>
			</data>
			<data key="d6">
				<demostyle:AssetNodeStyle assetName="usericon_male5.svg"/>
			</data>
			<port name="p0"/>
		</node>
		<node id="n18">
			<data key="d3">
				<x:List>
					<y:Label Style="{y:GraphMLReference 1}">
						<y:Label.Text><![CDATA[Liam Noppenkopf]]></y:Label.Text>
						<y:Label.LayoutParameter>
							<y:RatioAnchoredLabelModelParameter LayoutRatio="0.5,1" LabelRatio="0.5,0">
								<y:RatioAnchoredLabelModelParameter.Model>
									<y:FreeNodeLabelModel/>
								</y:RatioAnchoredLabelModelParameter.Model>
							</y:RatioAnchoredLabelModelParameter>
						</y:Label.LayoutParameter>
					</y:Label>
				</x:List>
			</data>
			<data key="d4">
				<y:RectD X="0" Y="109" Width="40" Height="40"/>
			</data>
			<data key="d6">
				<demostyle:AssetNodeStyle assetName="usericon_male5.svg"/>
			</data>
			<port name="p0"/>
			<port name="p1"/>
		</node>
		<node id="n19">
			<data key="d3">
				<x:List>
					<y:Label Style="{y:GraphMLReference 1}">
						<y:Label.Text><![CDATA[Samuel Apfelbaum]]></y:Label.Text>
						<y:Label.LayoutParameter>
							<y:RatioAnchoredLabelModelParameter LayoutRatio="0.5,1" LabelRatio="0.5,0">
								<y:RatioAnchoredLabelModelParameter.Model>
									<y:FreeNodeLabelModel/>
								</y:RatioAnchoredLabelModelParameter.Model>
							</y:RatioAnchoredLabelModelParameter>
						</y:Label.LayoutParameter>
					</y:Label>
				</x:List>
			</data>
			<data key="d4">
				<y:RectD X="581" Y="358" Width="40" Height="40"/>
			</data>
			<data key="d6">
				<demostyle:AssetNodeStyle assetName="usericon_male5.svg"/>
			</data>
			<port name="p0"/>
			<port name="p1"/>
		</node>
		<node id="n20">
			<data key="d3">
				<x:List>
					<y:Label Style="{y:GraphMLReference 1}">
						<y:Label.Text><![CDATA[Anton Apfelbaum]]></y:Label.Text>
						<y:Label.LayoutParameter>
							<y:RatioAnchoredLabelModelParameter LayoutRatio="0.5,1" LabelRatio="0.5,0">
								<y:RatioAnchoredLabelModelParameter.Model>
									<y:FreeNodeLabelModel/>
								</y:RatioAnchoredLabelModelParameter.Model>
							</y:RatioAnchoredLabelModelParameter>
						</y:Label.LayoutParameter>
					</y:Label>
				</x:List>
			</data>
			<data key="d4">
				<y:RectD X="713" Y="320" Width="40" Height="40"/>
			</data>
			<data key="d6">
				<demostyle:AssetNodeStyle assetName="usericon_male5.svg"/>
			</data>
			<port name="p0"/>
			<port name="p1"/>
			<port name="p2"/>
		</node>
		<node id="n21">
			<data key="d3">
				<x:List>
					<y:Label Style="{y:GraphMLReference 1}">
						<y:Label.Text><![CDATA[Theodor Nop]]></y:Label.Text>
						<y:Label.LayoutParameter>
							<y:RatioAnchoredLabelModelParameter LayoutRatio="0.5,1" LabelRatio="0.5,0">
								<y:RatioAnchoredLabelModelParameter.Model>
									<y:FreeNodeLabelModel/>
								</y:RatioAnchoredLabelModelParameter.Model>
							</y:RatioAnchoredLabelModelParameter>
						</y:Label.LayoutParameter>
					</y:Label>
				</x:List>
			</data>
			<data key="d4">
				<y:RectD X="309" Y="437" Width="40" Height="40"/>
			</data>
			<data key="d6">
				<demostyle:AssetNodeStyle assetName="usericon_male5.svg"/>
			</data>
			<port name="p0"/>
			<port name="p1"/>
		</node>
		<node id="n22">
			<data key="d3">
				<x:List>
					<y:Label Style="{y:GraphMLReference 1}">
						<y:Label.Text><![CDATA[Anna Nop]]></y:Label.Text>
						<y:Label.LayoutParameter>
							<y:RatioAnchoredLabelModelParameter LayoutRatio="0.5,1" LabelRatio="0.5,0">
								<y:RatioAnchoredLabelModelParameter.Model>
									<y:FreeNodeLabelModel/>
								</y:RatioAnchoredLabelModelParameter.Model>
							</y:RatioAnchoredLabelModelParameter>
						</y:Label.LayoutParameter>
					</y:Label>
				</x:List>
			</data>
			<data key="d4">
				<y:RectD X="222" Y="334" Width="40" Height="40"/>
			</data>
			<data key="d6">
				<demostyle:AssetNodeStyle assetName="usericon_female3.svg"/>
			</data>
			<port name="p0"/>
			<port name="p1"/>
			<port name="p2"/>
		</node>
		<node id="n23">
			<data key="d3">
				<x:List>
					<y:Label Style="{y:GraphMLReference 1}">
						<y:Label.Text><![CDATA[Emma Noppenkopf]]></y:Label.Text>
						<y:Label.LayoutParameter>
							<y:RatioAnchoredLabelModelParameter LayoutRatio="0.5,1" LabelRatio="0.5,0">
								<y:RatioAnchoredLabelModelParameter.Model>
									<y:FreeNodeLabelModel/>
								</y:RatioAnchoredLabelModelParameter.Model>
							</y:RatioAnchoredLabelModelParameter>
						</y:Label.LayoutParameter>
					</y:Label>
				</x:List>
			</data>
			<data key="d4">
				<y:RectD X="87" Y="0" Width="40" Height="40"/>
			</data>
			<data key="d6">
				<demostyle:AssetNodeStyle assetName="usericon_female3.svg"/>
			</data>
			<port name="p0"/>
		</node>
		<node id="n24">
			<data key="d3">
				<x:List>
					<y:Label Style="{y:GraphMLReference 1}">
						<y:Label.Text><![CDATA[Mia Blauschwarz]]></y:Label.Text>
						<y:Label.LayoutParameter>
							<y:RatioAnchoredLabelModelParameter LayoutRatio="0.5,1" LabelRatio="0.5,0">
								<y:RatioAnchoredLabelModelParameter.Model>
									<y:FreeNodeLabelModel/>
								</y:RatioAnchoredLabelModelParameter.Model>
							</y:RatioAnchoredLabelModelParameter>
						</y:Label.LayoutParameter>
					</y:Label>
				</x:List>
			</data>
			<data key="d4">
				<y:RectD X="564" Y="688" Width="40" Height="40"/>
			</data>
			<data key="d6">
				<demostyle:AssetNodeStyle assetName="usericon_female3.svg"/>
			</data>
			<port name="p0"/>
			<port name="p1"/>
		</node>
		<node id="n25">
			<data key="d3">
				<x:List>
					<y:Label Style="{y:GraphMLReference 1}">
						<y:Label.Text><![CDATA[Julia Hebauf]]></y:Label.Text>
						<y:Label.LayoutParameter>
							<y:RatioAnchoredLabelModelParameter LayoutRatio="0.5,1" LabelRatio="0.5,0">
								<y:RatioAnchoredLabelModelParameter.Model>
									<y:FreeNodeLabelModel/>
								</y:RatioAnchoredLabelModelParameter.Model>
							</y:RatioAnchoredLabelModelParameter>
						</y:Label.LayoutParameter>
					</y:Label>
				</x:List>
			</data>
			<data key="d4">
				<y:RectD X="815" Y="614" Width="40" Height="40"/>
			</data>
			<data key="d6">
				<demostyle:AssetNodeStyle assetName="usericon_female3.svg"/>
			</data>
			<port name="p0"/>
			<port name="p1"/>
		</node>
		<node id="n26">
			<data key="d3">
				<x:List>
					<y:Label Style="{y:GraphMLReference 1}">
						<y:Label.Text><![CDATA[Hannah Ostermann]]></y:Label.Text>
						<y:Label.LayoutParameter>
							<y:RatioAnchoredLabelModelParameter LayoutRatio="0.5,1" LabelRatio="0.5,0">
								<y:RatioAnchoredLabelModelParameter.Model>
									<y:FreeNodeLabelModel/>
								</y:RatioAnchoredLabelModelParameter.Model>
							</y:RatioAnchoredLabelModelParameter>
						</y:Label.LayoutParameter>
					</y:Label>
				</x:List>
			</data>
			<data key="d4">
				<y:RectD X="306" Y="125" Width="40" Height="40"/>
			</data>
			<data key="d6">
				<demostyle:AssetNodeStyle assetName="usericon_female3.svg"/>
			</data>
			<port name="p0"/>
			<port name="p1"/>
			<port name="p2"/>
		</node>
		<node id="n27">
			<data key="d3">
				<x:List>
					<y:Label Style="{y:GraphMLReference 1}">
						<y:Label.Text><![CDATA[Lara Sonnenbrand]]></y:Label.Text>
						<y:Label.LayoutParameter>
							<y:RatioAnchoredLabelModelParameter LayoutRatio="0.5,1" LabelRatio="0.5,0">
								<y:RatioAnchoredLabelModelParameter.Model>
									<y:FreeNodeLabelModel/>
								</y:RatioAnchoredLabelModelParameter.Model>
							</y:RatioAnchoredLabelModelParameter>
						</y:Label.LayoutParameter>
					</y:Label>
				</x:List>
			</data>
			<data key="d4">
				<y:RectD X="849" Y="153" Width="40" Height="40"/>
			</data>
			<data key="d6">
				<demostyle:AssetNodeStyle assetName="usericon_female3.svg"/>
			</data>
			<port name="p0"/>
			<port name="p1"/>
		</node>
		<node id="n28">
			<data key="d3">
				<x:List>
					<y:Label Style="{y:GraphMLReference 1}">
						<y:Label.Text><![CDATA[Sarah Dunkel]]></y:Label.Text>
						<y:Label.LayoutParameter>
							<y:RatioAnchoredLabelModelParameter LayoutRatio="0.5,1" LabelRatio="0.5,0">
								<y:RatioAnchoredLabelModelParameter.Model>
									<y:FreeNodeLabelModel/>
								</y:RatioAnchoredLabelModelParameter.Model>
							</y:RatioAnchoredLabelModelParameter>
						</y:Label.LayoutParameter>
					</y:Label>
				</x:List>
			</data>
			<data key="d4">
				<y:RectD X="655" Y="153" Width="40" Height="40"/>
			</data>
			<data key="d6">
				<demostyle:AssetNodeStyle assetName="usericon_female3.svg"/>
			</data>
			<port name="p0"/>
		</node>
		<node id="n29">
			<data key="d3">
				<x:List>
					<y:Label Style="{y:GraphMLReference 1}">
						<y:Label.Text><![CDATA[Magdalena Kapperlmacher]]></y:Label.Text>
						<y:Label.LayoutParameter>
							<y:RatioAnchoredLabelModelParameter LayoutRatio="0.5,1" LabelRatio="0.5,0">
								<y:RatioAnchoredLabelModelParameter.Model>
									<y:FreeNodeLabelModel/>
								</y:RatioAnchoredLabelModelParameter.Model>
							</y:RatioAnchoredLabelModelParameter>
						</y:Label.LayoutParameter>
					</y:Label>
				</x:List>
			</data>
			<data key="d4">
				<y:RectD X="0" Y="473" Width="40" Height="40"/>
			</data>
			<data key="d6">
				<demostyle:AssetNodeStyle assetName="usericon_female3.svg"/>
			</data>
			<port name="p0"/>
		</node>
		<node id="n30">
			<data key="d3">
				<x:List>
					<y:Label Style="{y:GraphMLReference 1}">
						<y:Label.Text><![CDATA[Elisa Obernop]]></y:Label.Text>
						<y:Label.LayoutParameter>
							<y:RatioAnchoredLabelModelParameter LayoutRatio="0.5,1" LabelRatio="0.5,0">
								<y:RatioAnchoredLabelModelParameter.Model>
									<y:FreeNodeLabelModel/>
								</y:RatioAnchoredLabelModelParameter.Model>
							</y:RatioAnchoredLabelModelParameter>
						</y:Label.LayoutParameter>
					</y:Label>
				</x:List>
			</data>
			<data key="d4">
				<y:RectD X="495" Y="320" Width="40" Height="40"/>
			</data>
			<data key="d6">
				<demostyle:AssetNodeStyle assetName="usericon_female3.svg"/>
			</data>
			<port name="p0"/>
		</node>
		<node id="n31">
			<data key="d3">
				<x:List>
					<y:Label Style="{y:GraphMLReference 1}">
						<y:Label.Text><![CDATA[Olivia Block]]></y:Label.Text>
						<y:Label.LayoutParameter>
							<y:RatioAnchoredLabelModelParameter LayoutRatio="0.5,1" LabelRatio="0.5,0">
								<y:RatioAnchoredLabelModelParameter.Model>
									<y:FreeNodeLabelModel/>
								</y:RatioAnchoredLabelModelParameter.Model>
							</y:RatioAnchoredLabelModelParameter>
						</y:Label.LayoutParameter>
					</y:Label>
				</x:List>
			</data>
			<data key="d4">
				<y:RectD X="419" Y="163" Width="40" Height="40"/>
			</data>
			<data key="d6">
				<demostyle:AssetNodeStyle assetName="usericon_female3.svg"/>
			</data>
			<port name="p0"/>
			<port name="p1"/>
			<port name="p2"/>
			<port name="p3"/>
		</node>
		<node id="n32">
			<data key="d3">
				<x:List>
					<y:Label Style="{y:GraphMLReference 1}">
						<y:Label.Text><![CDATA[Franziska Blauschwarz]]></y:Label.Text>
						<y:Label.LayoutParameter>
							<y:RatioAnchoredLabelModelParameter LayoutRatio="0.5,1" LabelRatio="0.5,0">
								<y:RatioAnchoredLabelModelParameter.Model>
									<y:FreeNodeLabelModel/>
								</y:RatioAnchoredLabelModelParameter.Model>
							</y:RatioAnchoredLabelModelParameter>
						</y:Label.LayoutParameter>
					</y:Label>
				</x:List>
			</data>
			<data key="d4">
				<y:RectD X="612" Y="559" Width="40" Height="40"/>
			</data>
			<data key="d6">
				<demostyle:AssetNodeStyle assetName="usericon_female3.svg"/>
			</data>
			<port name="p0"/>
			<port name="p1"/>
		</node>
		<node id="n33">
			<data key="d3">
				<x:List>
					<y:Label Style="{y:GraphMLReference 1}">
						<y:Label.Text><![CDATA[Isabella Rotblock]]></y:Label.Text>
						<y:Label.LayoutParameter>
							<y:RatioAnchoredLabelModelParameter LayoutRatio="0.5,1" LabelRatio="0.5,0">
								<y:RatioAnchoredLabelModelParameter.Model>
									<y:FreeNodeLabelModel/>
								</y:RatioAnchoredLabelModelParameter.Model>
							</y:RatioAnchoredLabelModelParameter>
						</y:Label.LayoutParameter>
					</y:Label>
				</x:List>
			</data>
			<data key="d4">
				<y:RectD X="390" Y="691" Width="40" Height="40"/>
			</data>
			<data key="d6">
				<demostyle:AssetNodeStyle assetName="usericon_female3.svg"/>
			</data>
			<port name="p0"/>
			<port name="p1"/>
		</node>
		<node id="n34">
			<data key="d3">
				<x:List>
					<y:Label Style="{y:GraphMLReference 1}">
						<y:Label.Text><![CDATA[Eva Aua]]></y:Label.Text>
						<y:Label.LayoutParameter>
							<y:RatioAnchoredLabelModelParameter LayoutRatio="0.5,1" LabelRatio="0.5,0">
								<y:RatioAnchoredLabelModelParameter.Model>
									<y:FreeNodeLabelModel/>
								</y:RatioAnchoredLabelModelParameter.Model>
							</y:RatioAnchoredLabelModelParameter>
						</y:Label.LayoutParameter>
					</y:Label>
				</x:List>
			</data>
			<data key="d4">
				<y:RectD X="117" Y="836" Width="40" Height="40"/>
			</data>
			<data key="d6">
				<demostyle:AssetNodeStyle assetName="usericon_female3.svg"/>
			</data>
			<port name="p0"/>
			<port name="p1"/>
		</node>
		<node id="n35">
			<data key="d3">
				<x:List>
					<y:Label Style="{y:GraphMLReference 1}">
						<y:Label.Text><![CDATA[Rosa Apfelbaum]]></y:Label.Text>
						<y:Label.LayoutParameter>
							<y:RatioAnchoredLabelModelParameter LayoutRatio="0.5,1" LabelRatio="0.5,0">
								<y:RatioAnchoredLabelModelParameter.Model>
									<y:FreeNodeLabelModel/>
								</y:RatioAnchoredLabelModelParameter.Model>
							</y:RatioAnchoredLabelModelParameter>
						</y:Label.LayoutParameter>
					</y:Label>
				</x:List>
			</data>
			<data key="d4">
				<y:RectD X="676" Y="457" Width="40" Height="40"/>
			</data>
			<data key="d6">
				<demostyle:AssetNodeStyle assetName="usericon_female3.svg"/>
			</data>
			<port name="p0"/>
			<port name="p1"/>
			<port name="p2"/>
		</node>
		<node id="n36">
			<data key="d3">
				<x:List>
					<y:Label Style="{y:GraphMLReference 1}">
						<y:Label.Text><![CDATA[Selina Klaubauf]]></y:Label.Text>
						<y:Label.LayoutParameter>
							<y:RatioAnchoredLabelModelParameter LayoutRatio="0.5,1" LabelRatio="0.5,0">
								<y:RatioAnchoredLabelModelParameter.Model>
									<y:FreeNodeLabelModel/>
								</y:RatioAnchoredLabelModelParameter.Model>
							</y:RatioAnchoredLabelModelParameter>
						</y:Label.LayoutParameter>
					</y:Label>
				</x:List>
			</data>
			<data key="d4">
				<y:RectD X="752" Y="153" Width="40" Height="40"/>
			</data>
			<data key="d6">
				<demostyle:AssetNodeStyle assetName="usericon_female3.svg"/>
			</data>
			<port name="p0"/>
		</node>
		<node id="n37">
			<data key="d3">
				<x:List>
					<y:Label Style="{y:GraphMLReference 1}">
						<y:Label.Text><![CDATA[Linda Nop]]></y:Label.Text>
						<y:Label.LayoutParameter>
							<y:RatioAnchoredLabelModelParameter LayoutRatio="0.5,1" LabelRatio="0.5,0">
								<y:RatioAnchoredLabelModelParameter.Model>
									<y:FreeNodeLabelModel/>
								</y:RatioAnchoredLabelModelParameter.Model>
							</y:RatioAnchoredLabelModelParameter>
						</y:Label.LayoutParameter>
					</y:Label>
				</x:List>
			</data>
			<data key="d4">
				<y:RectD X="174" Y="467" Width="40" Height="40"/>
			</data>
			<data key="d6">
				<demostyle:AssetNodeStyle assetName="usericon_female3.svg"/>
			</data>
			<port name="p0"/>
			<port name="p1"/>
		</node>
		<node id="n38">
			<data key="d3">
				<x:List>
					<y:Label Style="{y:GraphMLReference 1}">
						<y:Label.Text><![CDATA[Klara Kinderzeug]]></y:Label.Text>
						<y:Label.LayoutParameter>
							<y:RatioAnchoredLabelModelParameter LayoutRatio="0.5,1" LabelRatio="0.5,0">
								<y:RatioAnchoredLabelModelParameter.Model>
									<y:FreeNodeLabelModel/>
								</y:RatioAnchoredLabelModelParameter.Model>
							</y:RatioAnchoredLabelModelParameter>
						</y:Label.LayoutParameter>
					</y:Label>
				</x:List>
			</data>
			<data key="d4">
				<y:RectD X="203" Y="894" Width="40" Height="40"/>
			</data>
			<data key="d6">
				<demostyle:AssetNodeStyle assetName="usericon_female3.svg"/>
			</data>
			<port name="p0"/>
			<port name="p1"/>
		</node>
		<node id="n39">
			<data key="d3">
				<x:List>
					<y:Label LayoutParameter="{y:GraphMLReference 2}" Style="{y:GraphMLReference 1}">
						<y:Label.Text>Rathaus</y:Label.Text>
					</y:Label>
				</x:List>
			</data>
			<data key="d4">
				<y:RectD X="179" Y="705" Width="30" Height="30"/>
			</data>
			<data key="d6">
				<yjs:ShinyPlateNodeStyle fill="{y:GraphMLReference 4}" drawShadow="false"/>
			</data>
			<port name="p0"/>
		</node>
		<node id="n40">
			<data key="d3">
				<x:List>
					<y:Label Style="{y:GraphMLReference 1}">
						<y:Label.Text><![CDATA[Graue Villa]]></y:Label.Text>
						<y:Label.LayoutParameter>
							<y:RatioAnchoredLabelModelParameter LayoutRatio="0.5,1" LayoutOffset="0,10" LabelRatio="0.5,0"/>
						</y:Label.LayoutParameter>
					</y:Label>
				</x:List>
			</data>
			<data key="d4">
				<y:RectD X="0" Y="687" Width="40" Height="30"/>
			</data>
			<data key="d6">
				<yjs:BevelNodeStyle inset="3" radius="10" color="{y:GraphMLReference 5}" drawShadow="true"/>
			</data>
			<port name="p0"/>
		</node>
		<node id="n41">
			<data key="d3">
				<x:List>
					<y:Label LayoutParameter="{y:GraphMLReference 2}">
						<y:Label.Text>Konditorei</y:Label.Text>
						<y:Label.Style>
							<yjs:DefaultLabelStyle font="{y:GraphMLReference 3}" textFill="BLACK"/>
						</y:Label.Style>
					</y:Label>
				</x:List>
			</data>
			<data key="d4">
				<y:RectD X="3" Y="781" Width="30" Height="30"/>
			</data>
			<data key="d6">
				<yjs:ShinyPlateNodeStyle fill="{y:GraphMLReference 4}" drawShadow="false"/>
			</data>
			<port name="p0"/>
			<port name="p1"/>
		</node>
		<node id="n42">
			<data key="d3">
				<x:List>
					<y:Label LayoutParameter="{y:GraphMLReference 7}" Style="{y:GraphMLReference 6}">
						<y:Label.Text><![CDATA[Weiße Villa]]></y:Label.Text>
					</y:Label>
				</x:List>
			</data>
			<data key="d4">
				<y:RectD X="483" Y="91" Width="40" Height="30"/>
			</data>
			<data key="d6">
				<yjs:BevelNodeStyle inset="3" radius="10" color="{y:GraphMLReference 5}" drawShadow="true"/>
			</data>
			<port name="p0"/>
			<port name="p1"/>
			<port name="p2"/>
			<port name="p3"/>
		</node>
		<node id="n43">
			<data key="d3">
				<x:List>
					<y:Label Style="{y:GraphMLReference 6}">
						<y:Label.Text>Bauernhof</y:Label.Text>
						<y:Label.LayoutParameter>
							<y:RatioAnchoredLabelModelParameter LayoutRatio="0.5,1" LabelRatio="0.5,0">
								<y:RatioAnchoredLabelModelParameter.Model>
									<y:FreeNodeLabelModel/>
								</y:RatioAnchoredLabelModelParameter.Model>
							</y:RatioAnchoredLabelModelParameter>
						</y:Label.LayoutParameter>
					</y:Label>
				</x:List>
			</data>
			<data key="d4">
				<y:RectD X="204" Y="206" Width="30" Height="30"/>
			</data>
			<data key="d6">
				<yjs:ShinyPlateNodeStyle fill="{y:GraphMLReference 4}" drawShadow="false"/>
			</data>
			<port name="p0"/>
			<port name="p1"/>
		</node>
		<node id="n44">
			<data key="d3">
				<x:List>
					<y:Label Style="{y:GraphMLReference 6}">
						<y:Label.Text>Bioladen</y:Label.Text>
						<y:Label.LayoutParameter>
							<y:RatioAnchoredLabelModelParameter LayoutRatio="0.5,1" LabelRatio="0.5,0">
								<y:RatioAnchoredLabelModelParameter.Model>
									<y:FreeNodeLabelModel/>
								</y:RatioAnchoredLabelModelParameter.Model>
							</y:RatioAnchoredLabelModelParameter>
						</y:Label.LayoutParameter>
					</y:Label>
				</x:List>
			</data>
			<data key="d4">
				<y:RectD X="336" Y="0" Width="30" Height="30"/>
			</data>
			<data key="d6">
				<yjs:ShinyPlateNodeStyle fill="{y:GraphMLReference 4}" drawShadow="false"/>
			</data>
			<port name="p0"/>
		</node>
		<node id="n45">
			<data key="d3">
				<x:List>
					<y:Label LayoutParameter="{y:GraphMLReference 7}" Style="{y:GraphMLReference 6}">
						<y:Label.Text><![CDATA[LEGO Shop]]></y:Label.Text>
					</y:Label>
				</x:List>
			</data>
			<data key="d4">
				<y:RectD X="340" Y="907" Width="40" Height="30"/>
			</data>
			<data key="d6">
				<yjs:BevelNodeStyle inset="3" radius="10" color="{y:GraphMLReference 5}" drawShadow="true"/>
			</data>
			<port name="p0"/>
			<port name="p1"/>
		</node>
		<node id="n46">
			<data key="d3">
				<x:List>
					<y:Label LayoutParameter="{y:GraphMLReference 7}" Style="{y:GraphMLReference 6}">
						<y:Label.Text><![CDATA[Öffentliches Bad]]></y:Label.Text>
					</y:Label>
				</x:List>
			</data>
			<data key="d4">
				<y:RectD X="89" Y="244" Width="40" Height="30"/>
			</data>
			<data key="d6">
				<yjs:BevelNodeStyle inset="3" radius="10" color="{y:GraphMLReference 5}" drawShadow="true"/>
			</data>
			<port name="p0"/>
		</node>
		<node id="n47">
			<data key="d3">
				<x:List>
					<y:Label Style="{y:GraphMLReference 6}">
						<y:Label.Text>Pizzeria</y:Label.Text>
						<y:Label.LayoutParameter>
							<y:RatioAnchoredLabelModelParameter LayoutRatio="0.5,1" LabelRatio="0.5,0">
								<y:RatioAnchoredLabelModelParameter.Model>
									<y:FreeNodeLabelModel/>
								</y:RatioAnchoredLabelModelParameter.Model>
							</y:RatioAnchoredLabelModelParameter>
						</y:Label.LayoutParameter>
					</y:Label>
				</x:List>
			</data>
			<data key="d4">
				<y:RectD X="701" Y="559" Width="30" Height="30"/>
			</data>
			<data key="d6">
				<yjs:ShinyPlateNodeStyle fill="{y:GraphMLReference 4}" drawShadow="false"/>
			</data>
			<port name="p0"/>
			<port name="p1"/>
		</node>
		<node id="n48">
			<data key="d3">
				<x:List>
					<y:Label Style="{y:GraphMLReference 6}">
						<y:Label.Text>Tierklinik</y:Label.Text>
						<y:Label.LayoutParameter>
							<y:RatioAnchoredLabelModelParameter LayoutRatio="0.5,1" LabelRatio="0.5,0">
								<y:RatioAnchoredLabelModelParameter.Model>
									<y:FreeNodeLabelModel/>
								</y:RatioAnchoredLabelModelParameter.Model>
							</y:RatioAnchoredLabelModelParameter>
						</y:Label.LayoutParameter>
					</y:Label>
				</x:List>
			</data>
			<data key="d4">
				<y:RectD X="395" Y="473" Width="30" Height="30"/>
			</data>
			<data key="d6">
				<yjs:ShinyPlateNodeStyle fill="{y:GraphMLReference 4}" drawShadow="false"/>
			</data>
			<port name="p0"/>
		</node>
		<node id="n49">
			<data key="d3">
				<x:List>
					<y:Label Style="{y:GraphMLReference 6}">
						<y:Label.Text>Aquarium</y:Label.Text>
						<y:Label.LayoutParameter>
							<y:RatioAnchoredLabelModelParameter LayoutRatio="0.5,1" LabelRatio="0.5,0">
								<y:RatioAnchoredLabelModelParameter.Model>
									<y:FreeNodeLabelModel/>
								</y:RatioAnchoredLabelModelParameter.Model>
							</y:RatioAnchoredLabelModelParameter>
						</y:Label.LayoutParameter>
					</y:Label>
				</x:List>
			</data>
			<data key="d4">
				<y:RectD X="97" Y="320" Width="30" Height="30"/>
			</data>
			<data key="d6">
				<yjs:ShinyPlateNodeStyle fill="{y:GraphMLReference 4}" drawShadow="false"/>
			</data>
			<port name="p0"/>
		</node>
		<node id="n50">
			<data key="d3">
				<x:List>
					<y:Label Style="{y:GraphMLReference 6}">
						<y:Label.Text>Bank</y:Label.Text>
						<y:Label.LayoutParameter>
							<y:RatioAnchoredLabelModelParameter LayoutRatio="0.5,1" LabelRatio="0.5,0">
								<y:RatioAnchoredLabelModelParameter.Model>
									<y:FreeNodeLabelModel/>
								</y:RatioAnchoredLabelModelParameter.Model>
							</y:RatioAnchoredLabelModelParameter>
						</y:Label.LayoutParameter>
					</y:Label>
				</x:List>
			</data>
			<data key="d4">
				<y:RectD X="488" Y="473" Width="30" Height="30"/>
			</data>
			<data key="d6">
				<yjs:ShinyPlateNodeStyle fill="{y:GraphMLReference 4}" drawShadow="false"/>
			</data>
			<port name="p0"/>
		</node>
		<node id="n51">
			<data key="d3">
				<x:List>
					<y:Label Style="{y:GraphMLReference 6}">
						<y:Label.Text>Riesenrad</y:Label.Text>
						<y:Label.LayoutParameter>
							<y:RatioAnchoredLabelModelParameter LayoutRatio="0.5,1" LabelRatio="0.5,0">
								<y:RatioAnchoredLabelModelParameter.Model>
									<y:FreeNodeLabelModel/>
								</y:RatioAnchoredLabelModelParameter.Model>
							</y:RatioAnchoredLabelModelParameter>
						</y:Label.LayoutParameter>
					</y:Label>
				</x:List>
			</data>
			<data key="d4">
				<y:RectD X="808" Y="423" Width="30" Height="30"/>
			</data>
			<data key="d6">
				<yjs:ShinyPlateNodeStyle fill="{y:GraphMLReference 4}" drawShadow="false"/>
			</data>
			<port name="p0"/>
			<port name="p1"/>
		</node>
		<node id="n52">
			<data key="d3">
				<x:List>
					<y:Label Style="{y:GraphMLReference 6}">
						<y:Label.Text>Polizei</y:Label.Text>
						<y:Label.LayoutParameter>
							<y:RatioAnchoredLabelModelParameter LayoutRatio="0.5,1" LabelRatio="0.5,0">
								<y:RatioAnchoredLabelModelParameter.Model>
									<y:FreeNodeLabelModel/>
								</y:RatioAnchoredLabelModelParameter.Model>
							</y:RatioAnchoredLabelModelParameter>
						</y:Label.LayoutParameter>
					</y:Label>
				</x:List>
			</data>
			<data key="d4">
				<y:RectD X="946.375" Y="125" Width="30" Height="30"/>
			</data>
			<data key="d6">
				<yjs:ShapeNodeStyle stroke="#FFFF8C00" fill="#FFFF8C00"/>
			</data>
			<port name="p0"/>
		</node>
		<edge id="e0" source="n1" target="n0" sourceport="p0" targetport="p0">
			<data key="d12">
				<yjs:PolylineEdgeStyle stroke="{y:GraphMLReference 8}" targetArrow="{y:GraphMLReference 12}"/>
			</data>
		</edge>
		<edge id="e1" source="n5" target="n8" sourceport="p0" targetport="p0">
			<data key="d12">
				<y:GraphMLReference ResourceKey="11"/>
			</data>
		</edge>
		<edge id="e2" source="n9" target="n24" sourceport="p0" targetport="p0">
			<data key="d12">
				<yjs:PolylineEdgeStyle stroke="{y:GraphMLReference 8}" targetArrow="{y:GraphMLReference 10}">
					<yjs:PolylineEdgeStyle.sourceArrow>
						<yjs:Arrow type="CIRCLE" scale="0.75" stroke="{y:GraphMLReference 8}" fill="#FF336699" cropLength="1"/>
					</yjs:PolylineEdgeStyle.sourceArrow>
				</yjs:PolylineEdgeStyle>
			</data>
		</edge>
		<edge id="e3" source="n22" target="n21" sourceport="p0" targetport="p0">
			<data key="d12">
				<yjs:PolylineEdgeStyle stroke="{y:GraphMLReference 8}" targetArrow="{y:GraphMLReference 10}">
					<yjs:PolylineEdgeStyle.sourceArrow>
						<yjs:Arrow type="CIRCLE" scale="0.75" stroke="{y:GraphMLReference 8}" fill="#FF336699" cropLength="1"/>
					</yjs:PolylineEdgeStyle.sourceArrow>
				</yjs:PolylineEdgeStyle>
			</data>
		</edge>
		<edge id="e4" source="n22" target="n37" sourceport="p1" targetport="p0">
			<data key="d12">
				<y:GraphMLReference ResourceKey="11"/>
			</data>
		</edge>
		<edge id="e5" source="n21" target="n37" sourceport="p1" targetport="p1">
			<data key="d12">
				<y:GraphMLReference ResourceKey="11"/>
			</data>
		</edge>
		<edge id="e6" source="n34" target="n16" sourceport="p0" targetport="p0">
			<data key="d12">
				<yjs:PolylineEdgeStyle stroke="#FF336699" targetArrow="{y:GraphMLReference 10}">
					<yjs:PolylineEdgeStyle.sourceArrow>
						<yjs:Arrow type="CIRCLE" scale="0.75" stroke="{y:GraphMLReference 8}" fill="#FF336699" cropLength="1"/>
					</yjs:PolylineEdgeStyle.sourceArrow>
				</yjs:PolylineEdgeStyle>
			</data>
		</edge>
		<edge id="e7" source="n12" target="n11" sourceport="p0" targetport="p0">
			<data key="d12">
				<y:GraphMLReference ResourceKey="11"/>
			</data>
		</edge>
		<edge id="e8" source="n12" target="n10" sourceport="p1" targetport="p0">
			<data key="d12">
				<y:GraphMLReference ResourceKey="11"/>
			</data>
		</edge>
		<edge id="e9" source="n38" target="n4" sourceport="p0" targetport="p0">
			<data key="d12">
				<yjs:PolylineEdgeStyle stroke="{y:GraphMLReference 8}" targetArrow="{y:GraphMLReference 10}">
					<yjs:PolylineEdgeStyle.sourceArrow>
						<yjs:Arrow type="CIRCLE" scale="0.75" stroke="{y:GraphMLReference 8}" fill="#FF336699" cropLength="1"/>
					</yjs:PolylineEdgeStyle.sourceArrow>
				</yjs:PolylineEdgeStyle>
			</data>
		</edge>
		<edge id="e10" source="n31" target="n11" sourceport="p0" targetport="p1">
			<data key="d12">
				<y:GraphMLReference ResourceKey="11"/>
			</data>
		</edge>
		<edge id="e11" source="n31" target="n10" sourceport="p1" targetport="p1">
			<data key="d12">
				<y:GraphMLReference ResourceKey="11"/>
			</data>
		</edge>
		<edge id="e12" source="n31" target="n12" sourceport="p2" targetport="p2">
			<data key="d12">
				<yjs:PolylineEdgeStyle stroke="{y:GraphMLReference 8}" targetArrow="{y:GraphMLReference 10}">
					<yjs:PolylineEdgeStyle.sourceArrow>
						<yjs:Arrow type="CIRCLE" scale="0.75" stroke="{y:GraphMLReference 8}" fill="#FF336699" cropLength="1"/>
					</yjs:PolylineEdgeStyle.sourceArrow>
				</yjs:PolylineEdgeStyle>
			</data>
		</edge>
		<edge id="e13" source="n35" target="n20" sourceport="p0" targetport="p0">
			<data key="d12">
				<yjs:PolylineEdgeStyle stroke="{y:GraphMLReference 8}" targetArrow="{y:GraphMLReference 10}">
					<yjs:PolylineEdgeStyle.sourceArrow>
						<yjs:Arrow type="CIRCLE" scale="0.75" stroke="{y:GraphMLReference 8}" fill="#FF336699" cropLength="1"/>
					</yjs:PolylineEdgeStyle.sourceArrow>
				</yjs:PolylineEdgeStyle>
			</data>
		</edge>
		<edge id="e14" source="n35" target="n19" sourceport="p1" targetport="p0">
			<data key="d12">
				<y:GraphMLReference ResourceKey="11"/>
			</data>
		</edge>
		<edge id="e15" source="n20" target="n19" sourceport="p1" targetport="p1">
			<data key="d12">
				<y:GraphMLReference ResourceKey="11"/>
			</data>
		</edge>
		<edge id="e16" source="n26" target="n2" sourceport="p0" targetport="p0">
			<data key="d12">
				<yjs:PolylineEdgeStyle stroke="{y:GraphMLReference 8}" targetArrow="{y:GraphMLReference 10}">
					<yjs:PolylineEdgeStyle.sourceArrow>
						<yjs:Arrow type="CIRCLE" scale="0.75" stroke="{y:GraphMLReference 8}" fill="#FF336699" cropLength="1"/>
					</yjs:PolylineEdgeStyle.sourceArrow>
				</yjs:PolylineEdgeStyle>
			</data>
		</edge>
		<edge id="e17" source="n3" target="n28" sourceport="p0" targetport="p0">
			<data key="d12">
				<yjs:PolylineEdgeStyle stroke="{y:GraphMLReference 8}" targetArrow="{y:GraphMLReference 10}">
					<yjs:PolylineEdgeStyle.sourceArrow>
						<yjs:Arrow type="CIRCLE" scale="0.75" stroke="{y:GraphMLReference 8}" fill="#FF336699" cropLength="1"/>
					</yjs:PolylineEdgeStyle.sourceArrow>
				</yjs:PolylineEdgeStyle>
			</data>
		</edge>
		<edge id="e18" source="n7" target="n25" sourceport="p0" targetport="p0">
			<data key="d12">
				<yjs:PolylineEdgeStyle stroke="{y:GraphMLReference 8}" targetArrow="{y:GraphMLReference 10}">
					<yjs:PolylineEdgeStyle.sourceArrow>
						<yjs:Arrow type="CIRCLE" scale="0.75" stroke="{y:GraphMLReference 8}" fill="#FF336699" cropLength="1"/>
					</yjs:PolylineEdgeStyle.sourceArrow>
				</yjs:PolylineEdgeStyle>
			</data>
		</edge>
		<edge id="e19" source="n6" target="n36" sourceport="p0" targetport="p0">
			<data key="d12">
				<yjs:PolylineEdgeStyle stroke="{y:GraphMLReference 8}" targetArrow="{y:GraphMLReference 10}">
					<yjs:PolylineEdgeStyle.sourceArrow>
						<yjs:Arrow type="CIRCLE" scale="0.75" stroke="{y:GraphMLReference 8}" fill="#FF336699" cropLength="1"/>
					</yjs:PolylineEdgeStyle.sourceArrow>
				</yjs:PolylineEdgeStyle>
			</data>
		</edge>
		<edge id="e20" source="n24" target="n32" sourceport="p1" targetport="p0">
			<data key="d12">
				<y:GraphMLReference ResourceKey="11"/>
			</data>
		</edge>
		<edge id="e21" source="n9" target="n32" sourceport="p1" targetport="p1">
			<data key="d12">
				<y:GraphMLReference ResourceKey="11"/>
			</data>
		</edge>
		<edge id="e22" source="n17" target="n29" sourceport="p0" targetport="p0">
			<data key="d12">
				<yjs:PolylineEdgeStyle stroke="{y:GraphMLReference 8}" targetArrow="{y:GraphMLReference 10}">
					<yjs:PolylineEdgeStyle.sourceArrow>
						<yjs:Arrow type="CIRCLE" scale="0.75" stroke="{y:GraphMLReference 8}" fill="#FF336699" cropLength="1"/>
					</yjs:PolylineEdgeStyle.sourceArrow>
				</yjs:PolylineEdgeStyle>
			</data>
		</edge>
		<edge id="e23" source="n18" target="n23" sourceport="p0" targetport="p0">
			<data key="d12">
				<yjs:PolylineEdgeStyle stroke="{y:GraphMLReference 8}" targetArrow="{y:GraphMLReference 10}">
					<yjs:PolylineEdgeStyle.sourceArrow>
						<yjs:Arrow type="CIRCLE" scale="0.75" stroke="{y:GraphMLReference 8}" fill="#FF336699" cropLength="1"/>
					</yjs:PolylineEdgeStyle.sourceArrow>
				</yjs:PolylineEdgeStyle>
			</data>
		</edge>
		<edge id="e24" source="n27" target="n15" sourceport="p0" targetport="p0">
			<data key="d12">
				<yjs:PolylineEdgeStyle stroke="{y:GraphMLReference 8}" targetArrow="{y:GraphMLReference 10}">
					<yjs:PolylineEdgeStyle.sourceArrow>
						<yjs:Arrow type="CIRCLE" scale="0.75" stroke="{y:GraphMLReference 8}" fill="#FF336699" cropLength="1"/>
					</yjs:PolylineEdgeStyle.sourceArrow>
				</yjs:PolylineEdgeStyle>
			</data>
		</edge>
		<edge id="e25" source="n33" target="n5" sourceport="p0" targetport="p1">
			<data key="d12">
				<yjs:PolylineEdgeStyle stroke="{y:GraphMLReference 8}" targetArrow="{y:GraphMLReference 10}">
					<yjs:PolylineEdgeStyle.sourceArrow>
						<yjs:Arrow type="CIRCLE" scale="0.75" stroke="{y:GraphMLReference 8}" fill="#FF336699" cropLength="1"/>
					</yjs:PolylineEdgeStyle.sourceArrow>
				</yjs:PolylineEdgeStyle>
			</data>
		</edge>
		<edge id="e26" source="n33" target="n8" sourceport="p1" targetport="p1">
			<data key="d12">
				<y:GraphMLReference ResourceKey="11"/>
			</data>
		</edge>
		<edge id="e27" source="n0" target="n39" sourceport="p1" targetport="p0">
			<data key="d10">
				<x:List>
					<y:Label>
						<y:Label.Text>Bürgermeister</y:Label.Text>
						<y:Label.LayoutParameter>
							<y:FreeEdgeLabelModelParameter Ratio="0.6231707826709785" Distance="-7.50100000000009" Angle="1.5326469059239145" Model="{y:GraphMLReference 27}"/>
						</y:Label.LayoutParameter>
						<y:Label.Style>
							<yjs:DefaultLabelStyle font="{y:GraphMLReference 3}" textFill="BLACK"/>
						</y:Label.Style>
					</y:Label>
				</x:List>
			</data>
			<data key="d12">
				<yjs:PolylineEdgeStyle targetArrow="{y:GraphMLReference 12}">
					<yjs:PolylineEdgeStyle.stroke>
						<yjs:Stroke fill="{y:GraphMLReference 9}" lineCap="SQUARE" dashStyle="Dash"/>
					</yjs:PolylineEdgeStyle.stroke>
				</yjs:PolylineEdgeStyle>
			</data>
		</edge>
		<edge id="e28" source="n1" target="n40" sourceport="p1" targetport="p0">
			<data key="d12">
				<yjs:PolylineEdgeStyle targetArrow="{y:GraphMLReference 12}">
					<yjs:PolylineEdgeStyle.stroke>
						<yjs:Stroke fill="{y:GraphMLReference 9}" lineCap="SQUARE" dashStyle="Dash"/>
					</yjs:PolylineEdgeStyle.stroke>
				</yjs:PolylineEdgeStyle>
			</data>
		</edge>
		<edge id="e29" source="n16" target="n41" sourceport="p1" targetport="p0">
			<data key="d12">
				<yjs:PolylineEdgeStyle targetArrow="{y:GraphMLReference 12}">
					<yjs:PolylineEdgeStyle.stroke>
						<yjs:Stroke fill="{y:GraphMLReference 9}" lineCap="SQUARE" dashStyle="Dash"/>
					</yjs:PolylineEdgeStyle.stroke>
				</yjs:PolylineEdgeStyle>
			</data>
		</edge>
		<edge id="e30" source="n34" target="n41" sourceport="p1" targetport="p1">
			<data key="d12">
				<yjs:PolylineEdgeStyle targetArrow="{y:GraphMLReference 12}">
					<yjs:PolylineEdgeStyle.stroke>
						<yjs:Stroke fill="{y:GraphMLReference 9}" lineCap="SQUARE" dashStyle="Dash"/>
					</yjs:PolylineEdgeStyle.stroke>
				</yjs:PolylineEdgeStyle>
			</data>
		</edge>
		<edge id="e31" source="n42" target="n31" sourceport="p0" targetport="p3">
			<data key="d12">
				<yjs:PolylineEdgeStyle stroke="{y:GraphMLReference 14}" smoothingLength="12" targetArrow="{y:GraphMLReference 16}">
					<yjs:PolylineEdgeStyle.sourceArrow>
						<yjs:Arrow type="NONE" scale="2" stroke="{y:GraphMLReference 14}" fill="#FF336699"/>
					</yjs:PolylineEdgeStyle.sourceArrow>
				</yjs:PolylineEdgeStyle>
			</data>
		</edge>
		<edge id="e32" source="n42" target="n12" sourceport="p1" targetport="p3">
			<data key="d12">
				<yjs:PolylineEdgeStyle stroke="{y:GraphMLReference 17}" targetArrow="{y:GraphMLReference 16}">
					<yjs:PolylineEdgeStyle.sourceArrow>
						<yjs:Arrow type="NONE" scale="2" stroke="{y:GraphMLReference 17}" fill="#FF336699"/>
					</yjs:PolylineEdgeStyle.sourceArrow>
				</yjs:PolylineEdgeStyle>
			</data>
		</edge>
		<edge id="e33" source="n42" target="n11" sourceport="p2" targetport="p2">
			<data key="d12">
				<yjs:PolylineEdgeStyle stroke="{y:GraphMLReference 18}" targetArrow="{y:GraphMLReference 16}">
					<yjs:PolylineEdgeStyle.sourceArrow>
						<yjs:Arrow type="NONE" scale="2" stroke="{y:GraphMLReference 18}" fill="#FF336699"/>
					</yjs:PolylineEdgeStyle.sourceArrow>
				</yjs:PolylineEdgeStyle>
			</data>
		</edge>
		<edge id="e34" source="n42" target="n10" sourceport="p3" targetport="p2">
			<data key="d12">
				<yjs:PolylineEdgeStyle stroke="{y:GraphMLReference 19}" targetArrow="{y:GraphMLReference 16}">
					<yjs:PolylineEdgeStyle.sourceArrow>
						<yjs:Arrow type="NONE" scale="2" stroke="{y:GraphMLReference 19}" fill="#FF336699"/>
					</yjs:PolylineEdgeStyle.sourceArrow>
				</yjs:PolylineEdgeStyle>
			</data>
		</edge>
		<edge id="e35" source="n44" target="n26" sourceport="p0" targetport="p1">
			<data key="d12">
				<yjs:PolylineEdgeStyle stroke="{y:GraphMLReference 20}" targetArrow="{y:GraphMLReference 16}">
					<yjs:PolylineEdgeStyle.sourceArrow>
						<yjs:Arrow type="NONE" scale="2" stroke="{y:GraphMLReference 20}" fill="#FF336699"/>
					</yjs:PolylineEdgeStyle.sourceArrow>
				</yjs:PolylineEdgeStyle>
			</data>
		</edge>
		<edge id="e36" source="n43" target="n2" sourceport="p0" targetport="p1">
			<data key="d12">
				<yjs:PolylineEdgeStyle targetArrow="{y:GraphMLReference 16}">
					<yjs:PolylineEdgeStyle.stroke>
						<yjs:Stroke fill="{y:GraphMLReference 13}" lineCap="SQUARE" dashStyle="{y:GraphMLReference 15}" thickness="2"/>
					</yjs:PolylineEdgeStyle.stroke>
					<yjs:PolylineEdgeStyle.sourceArrow>
						<yjs:Arrow type="NONE" scale="2" fill="#FF336699">
							<yjs:Arrow.stroke>
								<yjs:Stroke fill="{y:GraphMLReference 13}" lineCap="SQUARE" dashStyle="{y:GraphMLReference 15}" thickness="0"/>
							</yjs:Arrow.stroke>
						</yjs:Arrow>
					</yjs:PolylineEdgeStyle.sourceArrow>
				</yjs:PolylineEdgeStyle>
			</data>
		</edge>
		<edge id="e37" source="n43" target="n26" sourceport="p1" targetport="p2">
			<data key="d12">
				<yjs:PolylineEdgeStyle stroke="{y:GraphMLReference 21}" targetArrow="{y:GraphMLReference 16}">
					<yjs:PolylineEdgeStyle.sourceArrow>
						<yjs:Arrow type="NONE" scale="2" stroke="{y:GraphMLReference 21}" fill="#FF336699"/>
					</yjs:PolylineEdgeStyle.sourceArrow>
				</yjs:PolylineEdgeStyle>
			</data>
		</edge>
		<edge id="e38" source="n45" target="n4" sourceport="p0" targetport="p1">
			<data key="d12">
				<yjs:PolylineEdgeStyle stroke="{y:GraphMLReference 22}" targetArrow="{y:GraphMLReference 16}">
					<yjs:PolylineEdgeStyle.sourceArrow>
						<yjs:Arrow type="NONE" scale="2" stroke="{y:GraphMLReference 22}" fill="#FF336699"/>
					</yjs:PolylineEdgeStyle.sourceArrow>
				</yjs:PolylineEdgeStyle>
			</data>
		</edge>
		<edge id="e39" source="n45" target="n38" sourceport="p1" targetport="p1">
			<data key="d12">
				<yjs:PolylineEdgeStyle stroke="{y:GraphMLReference 23}" targetArrow="{y:GraphMLReference 16}">
					<yjs:PolylineEdgeStyle.sourceArrow>
						<yjs:Arrow type="NONE" scale="2" stroke="{y:GraphMLReference 23}" fill="#FF336699"/>
					</yjs:PolylineEdgeStyle.sourceArrow>
				</yjs:PolylineEdgeStyle>
			</data>
		</edge>
		<edge id="e40" source="n46" target="n18" sourceport="p0" targetport="p1">
			<data key="d12">
				<yjs:PolylineEdgeStyle stroke="{y:GraphMLReference 24}" targetArrow="{y:GraphMLReference 16}">
					<yjs:PolylineEdgeStyle.sourceArrow>
						<yjs:Arrow type="NONE" scale="2" stroke="{y:GraphMLReference 24}" fill="#FF336699"/>
					</yjs:PolylineEdgeStyle.sourceArrow>
				</yjs:PolylineEdgeStyle>
			</data>
		</edge>
		<edge id="e41" source="n47" target="n7" sourceport="p0" targetport="p1">
			<data key="d12">
				<yjs:PolylineEdgeStyle stroke="{y:GraphMLReference 25}" targetArrow="{y:GraphMLReference 16}">
					<yjs:PolylineEdgeStyle.sourceArrow>
						<yjs:Arrow type="NONE" scale="2" stroke="{y:GraphMLReference 25}" fill="#FF336699"/>
					</yjs:PolylineEdgeStyle.sourceArrow>
				</yjs:PolylineEdgeStyle>
			</data>
		</edge>
		<edge id="e42" source="n47" target="n25" sourceport="p1" targetport="p1">
			<data key="d12">
				<yjs:PolylineEdgeStyle stroke="{y:GraphMLReference 26}" targetArrow="{y:GraphMLReference 16}">
					<yjs:PolylineEdgeStyle.sourceArrow>
						<yjs:Arrow type="NONE" scale="2" stroke="{y:GraphMLReference 26}" fill="#FF336699"/>
					</yjs:PolylineEdgeStyle.sourceArrow>
				</yjs:PolylineEdgeStyle>
			</data>
		</edge>
		<edge id="e43" source="n14" target="n48" sourceport="p0" targetport="p0">
			<data key="d10">
				<x:List>
					<y:Label Style="{y:GraphMLReference 6}">
						<y:Label.Text>Arzt</y:Label.Text>
						<y:Label.LayoutParameter>
							<y:FreeEdgeLabelModelParameter Ratio="0.5237175564836194" Distance="12.500000000000052" Angle="1.6517004259501278" Model="{y:GraphMLReference 27}"/>
						</y:Label.LayoutParameter>
					</y:Label>
				</x:List>
			</data>
			<data key="d12">
				<yjs:PolylineEdgeStyle stroke="{y:GraphMLReference 28}" targetArrow="{y:GraphMLReference 16}">
					<yjs:PolylineEdgeStyle.sourceArrow>
						<yjs:Arrow type="NONE" scale="2" stroke="{y:GraphMLReference 28}" fill="#FF336699"/>
					</yjs:PolylineEdgeStyle.sourceArrow>
				</yjs:PolylineEdgeStyle>
			</data>
		</edge>
		<edge id="e44" source="n49" target="n22" sourceport="p0" targetport="p2">
			<data key="d10">
				<x:List>
					<y:Label Style="{y:GraphMLReference 6}">
						<y:Label.Text>Inhaber</y:Label.Text>
						<y:Label.LayoutParameter>
							<y:FreeEdgeLabelModelParameter Ratio="0.49467475241288134" Distance="12.499999999999925" Angle="0.14512632217340407" Model="{y:GraphMLReference 27}"/>
						</y:Label.LayoutParameter>
					</y:Label>
				</x:List>
			</data>
			<data key="d12">
				<yjs:PolylineEdgeStyle stroke="{y:GraphMLReference 29}" targetArrow="{y:GraphMLReference 16}">
					<yjs:PolylineEdgeStyle.sourceArrow>
						<yjs:Arrow type="NONE" scale="2" stroke="{y:GraphMLReference 29}" fill="#FF336699"/>
					</yjs:PolylineEdgeStyle.sourceArrow>
				</yjs:PolylineEdgeStyle>
			</data>
		</edge>
		<edge id="e45" source="n50" target="n30" sourceport="p0" targetport="p0">
			<data key="d10">
				<x:List>
					<y:Label Style="{y:GraphMLReference 6}">
						<y:Label.Text>Direktor</y:Label.Text>
						<y:Label.LayoutParameter>
							<y:FreeEdgeLabelModelParameter Ratio="0.49016861238975035" Distance="12.500000000000002" Angle="-1.494992489433757" Model="{y:GraphMLReference 27}"/>
						</y:Label.LayoutParameter>
					</y:Label>
				</x:List>
			</data>
			<data key="d12">
				<yjs:PolylineEdgeStyle stroke="{y:GraphMLReference 30}" targetArrow="{y:GraphMLReference 16}">
					<yjs:PolylineEdgeStyle.sourceArrow>
						<yjs:Arrow type="NONE" scale="2" stroke="{y:GraphMLReference 30}" fill="#FF336699"/>
					</yjs:PolylineEdgeStyle.sourceArrow>
				</yjs:PolylineEdgeStyle>
			</data>
		</edge>
		<edge id="e46" source="n51" target="n20" sourceport="p0" targetport="p2">
			<data key="d12">
				<yjs:PolylineEdgeStyle stroke="{y:GraphMLReference 31}" targetArrow="{y:GraphMLReference 16}">
					<yjs:PolylineEdgeStyle.sourceArrow>
						<yjs:Arrow type="NONE" scale="2" stroke="{y:GraphMLReference 31}" fill="#FF336699"/>
					</yjs:PolylineEdgeStyle.sourceArrow>
				</yjs:PolylineEdgeStyle>
			</data>
		</edge>
		<edge id="e47" source="n51" target="n35" sourceport="p1" targetport="p2">
			<data key="d12">
				<yjs:PolylineEdgeStyle stroke="{y:GraphMLReference 32}" targetArrow="{y:GraphMLReference 16}">
					<yjs:PolylineEdgeStyle.sourceArrow>
						<yjs:Arrow type="NONE" scale="2" stroke="{y:GraphMLReference 32}" fill="#FF336699"/>
					</yjs:PolylineEdgeStyle.sourceArrow>
				</yjs:PolylineEdgeStyle>
			</data>
		</edge>
		<edge id="e48" source="n27" target="n52" sourceport="p1" targetport="p0">
			<data key="d10">
				<x:List>
					<y:Label Style="{y:GraphMLReference 6}">
						<y:Label.Text>Hubschrauber</y:Label.Text>
						<y:Label.LayoutParameter>
							<y:SmartEdgeLabelModelParameter Distance="5">
								<y:SmartEdgeLabelModelParameter.Model>
									<y:SmartEdgeLabelModel/>
								</y:SmartEdgeLabelModelParameter.Model>
							</y:SmartEdgeLabelModelParameter>
						</y:Label.LayoutParameter>
					</y:Label>
				</x:List>
			</data>
			<data key="d12">
				<yjs:PolylineEdgeStyle stroke="{y:GraphMLReference 33}" targetArrow="{y:GraphMLReference 16}">
					<yjs:PolylineEdgeStyle.sourceArrow>
						<yjs:Arrow type="NONE" scale="2" stroke="{y:GraphMLReference 33}" fill="#FF336699"/>
					</yjs:PolylineEdgeStyle.sourceArrow>
				</yjs:PolylineEdgeStyle>
			</data>
		</edge>
	</graph>
</graphml>